33,42,2019-11-16
34,42,2019-11-16
35,42,2019-11-16
37,42,2019-11-16
38,42,2019-11-16
40,43,2019-11-16
41,43,2019-11-16
43,43,2019-11-16
44,43,2019-11-16
45,43,2019-11-16
46,9,2019-11-16
47,10,2019-11-16
